paqueteBean\tipoBean.class
paquteInter\puestoInter.class
paqueteBean\controlBean.class
paqueteImplement\puestoImple.class
paqueteImplement\usuarioImple.class
paquteInter\controlInter.class
paqueteImplement\autorImple.class
paqueteBean\usuarioBean.class
paquteInter\personalInter.class
paqueteBean\libroBean.class
paqueteImplement\personalImple.class
paquteInter\autorInter.class
paqueteImplement\libroImple.class
paquteInter\tipoInter.class
paqueteBean\puestoBean.class
paqueteImplement\tipoImple.class
paqueteImplement\controlImple.class
paquteInter\libroInter.class
paqueteBean\personalBean.class
paquteInter\usuarioInter.class
paqueteBean\autorBean.class
